<svg xmlns="http://www.w3.org/2000/svg" viewBox="0 0 24 24" data-supported-dps="24x24"
     class="mercado-match me-1" focusable="false">
    <path d="M20 20a3.36 3.36 0 001-2.39V6.38A3.38 3.38 0 0017.62 3H6.38A3.36 3.36 0 004 4z"
          fill="#f8c77e"/>
    <path
            d="M4 4a3.36 3.36 0 00-1 2.38v11.24A3.38 3.38 0 006.38 21h11.24A3.36 3.36 0 0020 20z"
            fill="#e7a33e"/>
</svg>